<mxfile host="app.diagrams.net" modified="2021-03-28T20:18:07.036Z" agent="5.0 (Macintosh; Intel Mac OS X 11_1_0) AppleWebKit/537.36 (KHTML, like Gecko) Chrome/89.0.4389.90 Safari/537.36" etag="X9l6AKQsP3Xax32emsV6" version="14.5.0" type="gitlab" pages="2">
  <diagram id="g9UY9i7CyBF95g4P8AFW" name="Class Diagrams">
    <mxGraphModel dx="5786" dy="3541" grid="1" gridSize="10" guides="1" tooltips="1" connect="1" arrows="1" fold="1" page="1" pageScale="1" pageWidth="827" pageHeight="1169" math="0" shadow="0">
      <root>
        <mxCell id="0" />
        <mxCell id="1" parent="0" />
        <mxCell id="Cjfzw1k7YDS4VqMuWa5K-1" value="Fro" style="rounded=0;whiteSpace=wrap;html=1;fillColor=#ffe6cc;strokeColor=#d79b00;" parent="1" vertex="1">
          <mxGeometry x="-910" y="-390" width="1600" height="900" as="geometry" />
        </mxCell>
        <mxCell id="p7HRGYPq8SAo1G_qG3Oj-8" value="" style="rounded=1;whiteSpace=wrap;html=1;fillColor=#f5f5f5;strokeColor=#666666;fontColor=#333333;" parent="1" vertex="1">
          <mxGeometry x="110" y="50" width="440" height="320" as="geometry" />
        </mxCell>
        <mxCell id="p7HRGYPq8SAo1G_qG3Oj-2" value="Actions" style="ellipse;whiteSpace=wrap;html=1;" parent="1" vertex="1">
          <mxGeometry x="150" y="100" width="120" height="80" as="geometry" />
        </mxCell>
        <mxCell id="p7HRGYPq8SAo1G_qG3Oj-3" value="Mutations" style="ellipse;whiteSpace=wrap;html=1;" parent="1" vertex="1">
          <mxGeometry x="370" y="100" width="120" height="80" as="geometry" />
        </mxCell>
        <mxCell id="p7HRGYPq8SAo1G_qG3Oj-4" value="State" style="ellipse;whiteSpace=wrap;html=1;" parent="1" vertex="1">
          <mxGeometry x="370" y="240" width="120" height="80" as="geometry" />
        </mxCell>
        <mxCell id="p7HRGYPq8SAo1G_qG3Oj-5" value="Getters&lt;br&gt;" style="ellipse;whiteSpace=wrap;html=1;" parent="1" vertex="1">
          <mxGeometry x="160" y="240" width="120" height="80" as="geometry" />
        </mxCell>
        <mxCell id="p7HRGYPq8SAo1G_qG3Oj-9" value="" style="endArrow=classic;html=1;exitX=1;exitY=0.5;exitDx=0;exitDy=0;entryX=0;entryY=0.5;entryDx=0;entryDy=0;" parent="1" source="p7HRGYPq8SAo1G_qG3Oj-2" target="p7HRGYPq8SAo1G_qG3Oj-3" edge="1">
          <mxGeometry width="50" height="50" relative="1" as="geometry">
            <mxPoint x="300" y="340" as="sourcePoint" />
            <mxPoint x="350" y="290" as="targetPoint" />
          </mxGeometry>
        </mxCell>
        <mxCell id="p7HRGYPq8SAo1G_qG3Oj-10" value="Commit" style="text;html=1;strokeColor=none;fillColor=none;align=center;verticalAlign=middle;whiteSpace=wrap;rounded=0;" parent="1" vertex="1">
          <mxGeometry x="310" y="120" width="40" height="20" as="geometry" />
        </mxCell>
        <mxCell id="p7HRGYPq8SAo1G_qG3Oj-12" value="" style="endArrow=classic;html=1;exitX=0.5;exitY=1;exitDx=0;exitDy=0;" parent="1" source="p7HRGYPq8SAo1G_qG3Oj-3" target="p7HRGYPq8SAo1G_qG3Oj-4" edge="1">
          <mxGeometry width="50" height="50" relative="1" as="geometry">
            <mxPoint x="290" y="150" as="sourcePoint" />
            <mxPoint x="380" y="150" as="targetPoint" />
          </mxGeometry>
        </mxCell>
        <mxCell id="p7HRGYPq8SAo1G_qG3Oj-13" value="Modify" style="text;html=1;strokeColor=none;fillColor=none;align=center;verticalAlign=middle;whiteSpace=wrap;rounded=0;" parent="1" vertex="1">
          <mxGeometry x="440" y="200" width="40" height="20" as="geometry" />
        </mxCell>
        <mxCell id="p7HRGYPq8SAo1G_qG3Oj-14" value="" style="endArrow=classic;html=1;exitX=1;exitY=0.5;exitDx=0;exitDy=0;entryX=0;entryY=0.5;entryDx=0;entryDy=0;" parent="1" source="p7HRGYPq8SAo1G_qG3Oj-5" target="p7HRGYPq8SAo1G_qG3Oj-4" edge="1">
          <mxGeometry width="50" height="50" relative="1" as="geometry">
            <mxPoint x="290" y="150" as="sourcePoint" />
            <mxPoint x="380" y="150" as="targetPoint" />
          </mxGeometry>
        </mxCell>
        <mxCell id="p7HRGYPq8SAo1G_qG3Oj-15" value="Copy" style="text;html=1;strokeColor=none;fillColor=none;align=center;verticalAlign=middle;whiteSpace=wrap;rounded=0;" parent="1" vertex="1">
          <mxGeometry x="300" y="260" width="40" height="20" as="geometry" />
        </mxCell>
        <mxCell id="p7HRGYPq8SAo1G_qG3Oj-16" value="Backend/Services" style="ellipse;shape=cloud;whiteSpace=wrap;html=1;" parent="1" vertex="1">
          <mxGeometry x="380" y="-290" width="220" height="130" as="geometry" />
        </mxCell>
        <mxCell id="p7HRGYPq8SAo1G_qG3Oj-17" value="&lt;h2&gt;Vuex&lt;/h2&gt;" style="text;html=1;strokeColor=none;fillColor=none;align=center;verticalAlign=middle;whiteSpace=wrap;rounded=0;" parent="1" vertex="1">
          <mxGeometry x="310" y="60" width="40" height="20" as="geometry" />
        </mxCell>
        <mxCell id="p7HRGYPq8SAo1G_qG3Oj-18" value="" style="rounded=1;whiteSpace=wrap;html=1;fillColor=#f5f5f5;strokeColor=#666666;fontColor=#333333;" parent="1" vertex="1">
          <mxGeometry x="20" y="-280" width="260" height="260" as="geometry" />
        </mxCell>
        <mxCell id="p7HRGYPq8SAo1G_qG3Oj-19" value="&lt;h2&gt;Axios&lt;/h2&gt;" style="text;html=1;strokeColor=none;fillColor=none;align=center;verticalAlign=middle;whiteSpace=wrap;rounded=0;" parent="1" vertex="1">
          <mxGeometry x="130" y="-270" width="40" height="20" as="geometry" />
        </mxCell>
        <mxCell id="p7HRGYPq8SAo1G_qG3Oj-22" value="«interface»&lt;br&gt;&lt;b&gt;HttpClient&lt;/b&gt;" style="html=1;" parent="1" vertex="1">
          <mxGeometry x="95" y="-230" width="110" height="50" as="geometry" />
        </mxCell>
        <mxCell id="p7HRGYPq8SAo1G_qG3Oj-23" value="SomeEntity" style="html=1;" parent="1" vertex="1">
          <mxGeometry x="95" y="-105" width="110" height="50" as="geometry" />
        </mxCell>
        <mxCell id="p7HRGYPq8SAo1G_qG3Oj-25" value="" style="endArrow=block;dashed=1;endFill=0;endSize=12;html=1;exitX=0.5;exitY=0;exitDx=0;exitDy=0;entryX=0.5;entryY=1;entryDx=0;entryDy=0;" parent="1" source="p7HRGYPq8SAo1G_qG3Oj-23" target="p7HRGYPq8SAo1G_qG3Oj-22" edge="1">
          <mxGeometry width="160" relative="1" as="geometry">
            <mxPoint x="200" y="-90" as="sourcePoint" />
            <mxPoint x="360" y="-90" as="targetPoint" />
          </mxGeometry>
        </mxCell>
        <mxCell id="p7HRGYPq8SAo1G_qG3Oj-26" value="Use" style="endArrow=open;endSize=12;dashed=1;html=1;entryX=0.5;entryY=1;entryDx=0;entryDy=0;" parent="1" source="p7HRGYPq8SAo1G_qG3Oj-2" target="p7HRGYPq8SAo1G_qG3Oj-23" edge="1">
          <mxGeometry width="160" relative="1" as="geometry">
            <mxPoint y="140" as="sourcePoint" />
            <mxPoint x="160" y="140" as="targetPoint" />
          </mxGeometry>
        </mxCell>
        <mxCell id="p7HRGYPq8SAo1G_qG3Oj-29" value="" style="rounded=1;whiteSpace=wrap;html=1;fillColor=#f5f5f5;strokeColor=#666666;fontColor=#333333;" parent="1" vertex="1">
          <mxGeometry x="-180" y="40" width="200" height="320" as="geometry" />
        </mxCell>
        <mxCell id="p7HRGYPq8SAo1G_qG3Oj-30" value="&lt;h2&gt;Components&lt;/h2&gt;" style="text;html=1;strokeColor=none;fillColor=none;align=center;verticalAlign=middle;whiteSpace=wrap;rounded=0;" parent="1" vertex="1">
          <mxGeometry x="-100" y="60" width="40" height="20" as="geometry" />
        </mxCell>
        <mxCell id="p7HRGYPq8SAo1G_qG3Oj-31" value="Parent Component" style="rounded=1;whiteSpace=wrap;html=1;" parent="1" vertex="1">
          <mxGeometry x="-160" y="120" width="145" height="60" as="geometry" />
        </mxCell>
        <mxCell id="p7HRGYPq8SAo1G_qG3Oj-42" value="" style="endArrow=none;html=1;edgeStyle=orthogonalEdgeStyle;exitX=0.7;exitY=1.01;exitDx=0;exitDy=0;entryX=0;entryY=0.5;entryDx=0;entryDy=0;exitPerimeter=0;" parent="1" source="p7HRGYPq8SAo1G_qG3Oj-31" target="p7HRGYPq8SAo1G_qG3Oj-32" edge="1">
          <mxGeometry relative="1" as="geometry">
            <mxPoint x="100" y="-20" as="sourcePoint" />
            <mxPoint x="260" y="-20" as="targetPoint" />
            <Array as="points">
              <mxPoint x="-60" y="181" />
              <mxPoint x="-60" y="300" />
            </Array>
          </mxGeometry>
        </mxCell>
        <mxCell id="p7HRGYPq8SAo1G_qG3Oj-45" value="Props" style="text;html=1;strokeColor=none;fillColor=none;align=center;verticalAlign=middle;whiteSpace=wrap;rounded=0;" parent="1" vertex="1">
          <mxGeometry x="-50" y="210" width="40" height="20" as="geometry" />
        </mxCell>
        <mxCell id="p7HRGYPq8SAo1G_qG3Oj-46" value="Map getters" style="endArrow=open;endSize=12;dashed=1;html=1;exitX=0;exitY=0.5;exitDx=0;exitDy=0;entryX=1;entryY=0.5;entryDx=0;entryDy=0;" parent="1" source="p7HRGYPq8SAo1G_qG3Oj-5" target="p7HRGYPq8SAo1G_qG3Oj-32" edge="1">
          <mxGeometry width="160" relative="1" as="geometry">
            <mxPoint x="70" y="430" as="sourcePoint" />
            <mxPoint x="230" y="430" as="targetPoint" />
            <Array as="points" />
          </mxGeometry>
        </mxCell>
        <mxCell id="p7HRGYPq8SAo1G_qG3Oj-48" value="dispatch&lt;br&gt;action" style="html=1;verticalAlign=bottom;endArrow=block;exitX=1;exitY=0;exitDx=0;exitDy=0;entryX=0;entryY=1;entryDx=0;entryDy=0;" parent="1" source="p7HRGYPq8SAo1G_qG3Oj-32" target="p7HRGYPq8SAo1G_qG3Oj-2" edge="1">
          <mxGeometry width="80" relative="1" as="geometry">
            <mxPoint x="50" y="320" as="sourcePoint" />
            <mxPoint x="130" y="320" as="targetPoint" />
          </mxGeometry>
        </mxCell>
        <mxCell id="p7HRGYPq8SAo1G_qG3Oj-49" value="" style="endArrow=block;startArrow=block;endFill=1;startFill=1;html=1;entryX=0.16;entryY=0.55;entryDx=0;entryDy=0;entryPerimeter=0;exitX=1;exitY=0.5;exitDx=0;exitDy=0;" parent="1" source="p7HRGYPq8SAo1G_qG3Oj-22" target="p7HRGYPq8SAo1G_qG3Oj-16" edge="1">
          <mxGeometry width="160" relative="1" as="geometry">
            <mxPoint x="-60" y="14" as="sourcePoint" />
            <mxPoint x="100" y="14" as="targetPoint" />
          </mxGeometry>
        </mxCell>
        <mxCell id="p7HRGYPq8SAo1G_qG3Oj-50" value="request" style="text;html=1;align=center;verticalAlign=middle;resizable=0;points=[];autosize=1;" parent="1" vertex="1">
          <mxGeometry x="320" y="-240" width="60" height="20" as="geometry" />
        </mxCell>
        <mxCell id="p7HRGYPq8SAo1G_qG3Oj-51" value="response" style="text;html=1;align=center;verticalAlign=middle;resizable=0;points=[];autosize=1;" parent="1" vertex="1">
          <mxGeometry x="280" y="-200" width="60" height="20" as="geometry" />
        </mxCell>
        <mxCell id="p7HRGYPq8SAo1G_qG3Oj-53" value="" style="rounded=1;whiteSpace=wrap;html=1;fillColor=#f5f5f5;strokeColor=#666666;fontColor=#333333;" parent="1" vertex="1">
          <mxGeometry x="-827" y="40" width="550" height="220" as="geometry" />
        </mxCell>
        <mxCell id="p7HRGYPq8SAo1G_qG3Oj-54" value="&lt;h2&gt;App&lt;/h2&gt;" style="text;html=1;strokeColor=none;fillColor=none;align=center;verticalAlign=middle;whiteSpace=wrap;rounded=0;" parent="1" vertex="1">
          <mxGeometry x="-567" y="60" width="40" height="20" as="geometry" />
        </mxCell>
        <mxCell id="p7HRGYPq8SAo1G_qG3Oj-55" value="Vue instance&lt;br&gt;App.vue" style="rounded=1;whiteSpace=wrap;html=1;" parent="1" vertex="1">
          <mxGeometry x="-607" y="120" width="120" height="60" as="geometry" />
        </mxCell>
        <mxCell id="p7HRGYPq8SAo1G_qG3Oj-56" value="Router view" style="rounded=1;whiteSpace=wrap;html=1;" parent="1" vertex="1">
          <mxGeometry x="-417" y="120" width="120" height="60" as="geometry" />
        </mxCell>
        <mxCell id="p7HRGYPq8SAo1G_qG3Oj-57" value="main.js" style="rounded=1;whiteSpace=wrap;html=1;" parent="1" vertex="1">
          <mxGeometry x="-807" y="120" width="120" height="60" as="geometry" />
        </mxCell>
        <mxCell id="p7HRGYPq8SAo1G_qG3Oj-59" value="" style="endArrow=classic;html=1;exitX=1;exitY=0.5;exitDx=0;exitDy=0;entryX=0;entryY=0.5;entryDx=0;entryDy=0;" parent="1" source="p7HRGYPq8SAo1G_qG3Oj-57" target="p7HRGYPq8SAo1G_qG3Oj-55" edge="1">
          <mxGeometry width="50" height="50" relative="1" as="geometry">
            <mxPoint x="-547" y="170" as="sourcePoint" />
            <mxPoint x="-497" y="120" as="targetPoint" />
          </mxGeometry>
        </mxCell>
        <mxCell id="p7HRGYPq8SAo1G_qG3Oj-60" value="creates" style="text;html=1;strokeColor=none;fillColor=none;align=center;verticalAlign=middle;whiteSpace=wrap;rounded=0;" parent="1" vertex="1">
          <mxGeometry x="-667" y="130" width="40" height="20" as="geometry" />
        </mxCell>
        <mxCell id="p7HRGYPq8SAo1G_qG3Oj-62" value="renders" style="text;html=1;strokeColor=none;fillColor=none;align=center;verticalAlign=middle;whiteSpace=wrap;rounded=0;" parent="1" vertex="1">
          <mxGeometry x="-467" y="130" width="40" height="20" as="geometry" />
        </mxCell>
        <mxCell id="p7HRGYPq8SAo1G_qG3Oj-63" value="" style="endArrow=classic;html=1;exitX=1;exitY=0.5;exitDx=0;exitDy=0;" parent="1" source="p7HRGYPq8SAo1G_qG3Oj-55" edge="1">
          <mxGeometry width="50" height="50" relative="1" as="geometry">
            <mxPoint x="-677.0000000000002" y="160" as="sourcePoint" />
            <mxPoint x="-417" y="150" as="targetPoint" />
          </mxGeometry>
        </mxCell>
        <mxCell id="p7HRGYPq8SAo1G_qG3Oj-64" value="" style="endArrow=classic;html=1;exitX=1;exitY=0.5;exitDx=0;exitDy=0;entryX=0;entryY=0.5;entryDx=0;entryDy=0;" parent="1" source="p7HRGYPq8SAo1G_qG3Oj-56" target="p7HRGYPq8SAo1G_qG3Oj-31" edge="1">
          <mxGeometry width="50" height="50" relative="1" as="geometry">
            <mxPoint x="-570" y="230" as="sourcePoint" />
            <mxPoint x="-520" y="180" as="targetPoint" />
          </mxGeometry>
        </mxCell>
        <mxCell id="p7HRGYPq8SAo1G_qG3Oj-65" value="displays&lt;br&gt;/someRoute" style="text;html=1;strokeColor=none;fillColor=none;align=center;verticalAlign=middle;whiteSpace=wrap;rounded=0;rotation=0;" parent="1" vertex="1">
          <mxGeometry x="-250" y="120" width="40" height="20" as="geometry" />
        </mxCell>
        <mxCell id="p7HRGYPq8SAo1G_qG3Oj-32" value="Child Component" style="rounded=1;whiteSpace=wrap;html=1;" parent="1" vertex="1">
          <mxGeometry x="-110" y="270" width="110" height="60" as="geometry" />
        </mxCell>
        <mxCell id="p7HRGYPq8SAo1G_qG3Oj-66" value="Map getters" style="endArrow=open;endSize=12;dashed=1;html=1;exitX=0.5;exitY=1;exitDx=0;exitDy=0;entryX=0.25;entryY=1;entryDx=0;entryDy=0;" parent="1" source="p7HRGYPq8SAo1G_qG3Oj-5" target="p7HRGYPq8SAo1G_qG3Oj-31" edge="1">
          <mxGeometry width="160" relative="1" as="geometry">
            <mxPoint x="262.42640687119274" y="308.2842712474617" as="sourcePoint" />
            <mxPoint x="-255" y="200" as="targetPoint" />
            <Array as="points">
              <mxPoint x="220" y="400" />
              <mxPoint x="-124" y="400" />
            </Array>
          </mxGeometry>
        </mxCell>
        <mxCell id="Cjfzw1k7YDS4VqMuWa5K-2" value="&lt;font&gt;&lt;font size=&quot;7&quot;&gt;Front-end&amp;nbsp;&lt;/font&gt;&lt;br&gt;&lt;font style=&quot;font-size: 24px&quot;&gt;(Vue SPA)&lt;/font&gt;&lt;br&gt;&lt;/font&gt;" style="text;html=1;align=center;verticalAlign=middle;resizable=0;points=[];autosize=1;" parent="1" vertex="1">
          <mxGeometry x="-847" y="-315" width="240" height="50" as="geometry" />
        </mxCell>
        <mxCell id="Cjfzw1k7YDS4VqMuWa5K-5" value="&lt;font style=&quot;color: rgb(0 , 0 , 0) ; font-family: &amp;#34;helvetica&amp;#34; ; font-style: normal ; font-weight: normal ; letter-spacing: normal ; text-align: center ; text-indent: 0px ; text-transform: none ; word-spacing: 0px ; text-decoration: none ; font-size: 24px&quot;&gt;(Vue SPA)&lt;/font&gt;" style="rounded=0;whiteSpace=wrap;html=1;" parent="1" vertex="1">
          <mxGeometry x="970" y="-500" width="1380" height="1050" as="geometry" />
        </mxCell>
        <mxCell id="Cjfzw1k7YDS4VqMuWa5K-6" value="" style="rounded=1;whiteSpace=wrap;html=1;fillColor=#e1d5e7;strokeColor=#9673a6;" parent="1" vertex="1">
          <mxGeometry x="1030" y="-370" width="680" height="590" as="geometry" />
        </mxCell>
        <mxCell id="Cjfzw1k7YDS4VqMuWa5K-10" value="&lt;font style=&quot;font-size: 24px&quot;&gt;Domain&lt;/font&gt;" style="text;html=1;strokeColor=none;fillColor=none;align=center;verticalAlign=middle;whiteSpace=wrap;rounded=0;" parent="1" vertex="1">
          <mxGeometry x="1241" y="-335" width="40" height="20" as="geometry" />
        </mxCell>
        <mxCell id="Cjfzw1k7YDS4VqMuWa5K-11" value="" style="rounded=1;whiteSpace=wrap;html=1;fillColor=#f5f5f5;strokeColor=#666666;fontColor=#333333;" parent="1" vertex="1">
          <mxGeometry x="1075" y="-290" width="260" height="170" as="geometry" />
        </mxCell>
        <mxCell id="Cjfzw1k7YDS4VqMuWa5K-12" value="&lt;span style=&quot;font-size: 24px&quot;&gt;Models&lt;/span&gt;" style="text;html=1;strokeColor=none;fillColor=none;align=center;verticalAlign=middle;whiteSpace=wrap;rounded=0;" parent="1" vertex="1">
          <mxGeometry x="1185" y="-270" width="40" height="20" as="geometry" />
        </mxCell>
        <mxCell id="Cjfzw1k7YDS4VqMuWa5K-13" value="" style="rounded=1;whiteSpace=wrap;html=1;fillColor=#f5f5f5;strokeColor=#666666;fontColor=#333333;" parent="1" vertex="1">
          <mxGeometry x="1380" y="-300" width="300" height="440" as="geometry" />
        </mxCell>
        <mxCell id="Cjfzw1k7YDS4VqMuWa5K-14" value="&lt;span style=&quot;font-size: 24px&quot;&gt;Repositories&lt;/span&gt;" style="text;html=1;strokeColor=none;fillColor=none;align=center;verticalAlign=middle;whiteSpace=wrap;rounded=0;" parent="1" vertex="1">
          <mxGeometry x="1510" y="-280" width="40" height="20" as="geometry" />
        </mxCell>
        <mxCell id="Cjfzw1k7YDS4VqMuWa5K-15" value="" style="rounded=1;whiteSpace=wrap;html=1;fillColor=#f5f5f5;strokeColor=#666666;fontColor=#333333;" parent="1" vertex="1">
          <mxGeometry x="1080" y="-50" width="250" height="190" as="geometry" />
        </mxCell>
        <mxCell id="Cjfzw1k7YDS4VqMuWa5K-16" value="&lt;span style=&quot;font-size: 24px&quot;&gt;Services&lt;br&gt;&lt;/span&gt;" style="text;html=1;strokeColor=none;fillColor=none;align=center;verticalAlign=middle;whiteSpace=wrap;rounded=0;" parent="1" vertex="1">
          <mxGeometry x="1160" y="-30" width="40" height="20" as="geometry" />
        </mxCell>
        <mxCell id="Cjfzw1k7YDS4VqMuWa5K-17" value="«interface»&lt;br&gt;&lt;b&gt;IService&lt;/b&gt;" style="html=1;" parent="1" vertex="1">
          <mxGeometry x="1125" y="20" width="110" height="50" as="geometry" />
        </mxCell>
        <mxCell id="Cjfzw1k7YDS4VqMuWa5K-19" value="«interface»&lt;br&gt;&lt;b&gt;IGenericRepository&amp;lt;T&amp;gt;&lt;/b&gt;" style="html=1;" parent="1" vertex="1">
          <mxGeometry x="1410" y="-230" width="250" height="50" as="geometry" />
        </mxCell>
        <mxCell id="Cjfzw1k7YDS4VqMuWa5K-24" value="" style="endArrow=block;dashed=1;endFill=0;endSize=12;html=1;entryX=0.25;entryY=1;entryDx=0;entryDy=0;" parent="1" source="Cjfzw1k7YDS4VqMuWa5K-61" target="Cjfzw1k7YDS4VqMuWa5K-19" edge="1">
          <mxGeometry width="160" relative="1" as="geometry">
            <mxPoint x="1485" y="-115" as="sourcePoint" />
            <mxPoint x="1510" y="-180" as="targetPoint" />
          </mxGeometry>
        </mxCell>
        <mxCell id="Cjfzw1k7YDS4VqMuWa5K-27" value="" style="endArrow=block;dashed=1;endFill=0;endSize=12;html=1;exitX=0.5;exitY=0;exitDx=0;exitDy=0;" parent="1" edge="1">
          <mxGeometry width="160" relative="1" as="geometry">
            <mxPoint x="1595" y="-75" as="sourcePoint" />
            <mxPoint x="1595" y="-179" as="targetPoint" />
          </mxGeometry>
        </mxCell>
        <mxCell id="Cjfzw1k7YDS4VqMuWa5K-67" style="edgeStyle=orthogonalEdgeStyle;rounded=0;orthogonalLoop=1;jettySize=auto;html=1;" parent="1" source="Cjfzw1k7YDS4VqMuWa5K-28" target="Cjfzw1k7YDS4VqMuWa5K-34" edge="1">
          <mxGeometry relative="1" as="geometry">
            <Array as="points">
              <mxPoint x="1350" y="45" />
              <mxPoint x="1350" y="-80" />
              <mxPoint x="1195" y="-80" />
            </Array>
          </mxGeometry>
        </mxCell>
        <mxCell id="Cjfzw1k7YDS4VqMuWa5K-28" value="Repository" style="html=1;" parent="1" vertex="1">
          <mxGeometry x="1420" y="20" width="240" height="50" as="geometry" />
        </mxCell>
        <mxCell id="Cjfzw1k7YDS4VqMuWa5K-29" value="" style="endArrow=block;dashed=1;endFill=0;endSize=12;html=1;entryX=0.5;entryY=1;entryDx=0;entryDy=0;" parent="1" target="Cjfzw1k7YDS4VqMuWa5K-60" edge="1">
          <mxGeometry width="160" relative="1" as="geometry">
            <mxPoint x="1594" y="20" as="sourcePoint" />
            <mxPoint x="1590" y="-40" as="targetPoint" />
          </mxGeometry>
        </mxCell>
        <mxCell id="Cjfzw1k7YDS4VqMuWa5K-30" value="" style="endArrow=block;dashed=1;endFill=0;endSize=12;html=1;entryX=0.5;entryY=1;entryDx=0;entryDy=0;" parent="1" edge="1">
          <mxGeometry width="160" relative="1" as="geometry">
            <mxPoint x="1483" y="20" as="sourcePoint" />
            <mxPoint x="1485" y="-70" as="targetPoint" />
            <Array as="points">
              <mxPoint x="1470" y="20" />
              <mxPoint x="1483" y="20" />
            </Array>
          </mxGeometry>
        </mxCell>
        <mxCell id="Cjfzw1k7YDS4VqMuWa5K-34" value="Model" style="html=1;" parent="1" vertex="1">
          <mxGeometry x="1145" y="-210" width="100" height="40" as="geometry" />
        </mxCell>
        <mxCell id="Cjfzw1k7YDS4VqMuWa5K-36" value="" style="rounded=1;whiteSpace=wrap;html=1;fillColor=#e1d5e7;strokeColor=#9673a6;" parent="1" vertex="1">
          <mxGeometry x="1620" y="270" width="190" height="210" as="geometry" />
        </mxCell>
        <mxCell id="Cjfzw1k7YDS4VqMuWa5K-37" value="&lt;font style=&quot;font-size: 24px&quot;&gt;Controllers&lt;br&gt;&lt;/font&gt;" style="text;html=1;strokeColor=none;fillColor=none;align=center;verticalAlign=middle;whiteSpace=wrap;rounded=0;" parent="1" vertex="1">
          <mxGeometry x="1700" y="290" width="40" height="20" as="geometry" />
        </mxCell>
        <mxCell id="Cjfzw1k7YDS4VqMuWa5K-39" value="Controller" style="html=1;" parent="1" vertex="1">
          <mxGeometry x="1670" y="360" width="100" height="40" as="geometry" />
        </mxCell>
        <mxCell id="Cjfzw1k7YDS4VqMuWa5K-40" value="" style="rounded=1;whiteSpace=wrap;html=1;fillColor=#e1d5e7;strokeColor=#9673a6;" parent="1" vertex="1">
          <mxGeometry x="1870" y="-105" width="350" height="285" as="geometry" />
        </mxCell>
        <mxCell id="Cjfzw1k7YDS4VqMuWa5K-41" value="&lt;font style=&quot;font-size: 24px&quot;&gt;Persistance&lt;br&gt;&lt;/font&gt;" style="text;html=1;strokeColor=none;fillColor=none;align=center;verticalAlign=middle;whiteSpace=wrap;rounded=0;" parent="1" vertex="1">
          <mxGeometry x="2030" y="-90" width="42" height="20" as="geometry" />
        </mxCell>
        <mxCell id="Cjfzw1k7YDS4VqMuWa5K-43" value="" style="rounded=1;whiteSpace=wrap;html=1;fillColor=#f5f5f5;strokeColor=#666666;fontColor=#333333;" parent="1" vertex="1">
          <mxGeometry x="1922.25" y="-30" width="257.5" height="160" as="geometry" />
        </mxCell>
        <mxCell id="Cjfzw1k7YDS4VqMuWa5K-46" value="&lt;span style=&quot;font-size: 24px&quot;&gt;Contexts&lt;br&gt;&lt;/span&gt;" style="text;html=1;strokeColor=none;fillColor=none;align=center;verticalAlign=middle;whiteSpace=wrap;rounded=0;" parent="1" vertex="1">
          <mxGeometry x="2030.25" y="-20" width="40" height="20" as="geometry" />
        </mxCell>
        <mxCell id="Cjfzw1k7YDS4VqMuWa5K-65" style="edgeStyle=orthogonalEdgeStyle;rounded=0;orthogonalLoop=1;jettySize=auto;html=1;entryX=0;entryY=0.5;entryDx=0;entryDy=0;entryPerimeter=0;" parent="1" source="Cjfzw1k7YDS4VqMuWa5K-42" target="Cjfzw1k7YDS4VqMuWa5K-64" edge="1">
          <mxGeometry relative="1" as="geometry" />
        </mxCell>
        <mxCell id="Cjfzw1k7YDS4VqMuWa5K-42" value="AppDbContext" style="html=1;" parent="1" vertex="1">
          <mxGeometry x="2000.25" y="30" width="100" height="40" as="geometry" />
        </mxCell>
        <mxCell id="Cjfzw1k7YDS4VqMuWa5K-47" value="" style="rounded=1;whiteSpace=wrap;html=1;fillColor=#e1d5e7;strokeColor=#9673a6;" parent="1" vertex="1">
          <mxGeometry x="1098.72" y="270" width="340" height="210" as="geometry" />
        </mxCell>
        <mxCell id="Cjfzw1k7YDS4VqMuWa5K-48" value="&lt;font style=&quot;font-size: 24px&quot;&gt;Services&lt;br&gt;&lt;/font&gt;" style="text;html=1;strokeColor=none;fillColor=none;align=center;verticalAlign=middle;whiteSpace=wrap;rounded=0;" parent="1" vertex="1">
          <mxGeometry x="1145" y="290" width="40" height="20" as="geometry" />
        </mxCell>
        <mxCell id="Cjfzw1k7YDS4VqMuWa5K-49" value="Service" style="html=1;" parent="1" vertex="1">
          <mxGeometry x="1208.72" y="355" width="100" height="40" as="geometry" />
        </mxCell>
        <mxCell id="Cjfzw1k7YDS4VqMuWa5K-51" value="" style="endArrow=block;dashed=1;endFill=0;endSize=12;html=1;exitX=0.5;exitY=0;exitDx=0;exitDy=0;entryX=0.5;entryY=1;entryDx=0;entryDy=0;" parent="1" source="Cjfzw1k7YDS4VqMuWa5K-49" target="Cjfzw1k7YDS4VqMuWa5K-17" edge="1">
          <mxGeometry width="160" relative="1" as="geometry">
            <mxPoint x="998.72" y="30" as="sourcePoint" />
            <mxPoint x="889.9965957446809" y="60" as="targetPoint" />
            <Array as="points">
              <mxPoint x="1230" y="260" />
            </Array>
          </mxGeometry>
        </mxCell>
        <mxCell id="Cjfzw1k7YDS4VqMuWa5K-54" value="" style="endArrow=block;endFill=1;html=1;edgeStyle=orthogonalEdgeStyle;align=left;verticalAlign=top;exitX=0.75;exitY=0;exitDx=0;exitDy=0;" parent="1" source="Cjfzw1k7YDS4VqMuWa5K-49" edge="1">
          <mxGeometry x="-1" relative="1" as="geometry">
            <mxPoint x="998.72" y="30" as="sourcePoint" />
            <mxPoint x="1530" y="70" as="targetPoint" />
            <Array as="points">
              <mxPoint x="1284" y="330" />
              <mxPoint x="1530" y="330" />
            </Array>
          </mxGeometry>
        </mxCell>
        <mxCell id="Cjfzw1k7YDS4VqMuWa5K-55" value="1" style="edgeLabel;resizable=0;html=1;align=left;verticalAlign=bottom;" parent="Cjfzw1k7YDS4VqMuWa5K-54" connectable="0" vertex="1">
          <mxGeometry x="-1" relative="1" as="geometry" />
        </mxCell>
        <mxCell id="Cjfzw1k7YDS4VqMuWa5K-63" style="edgeStyle=orthogonalEdgeStyle;rounded=0;orthogonalLoop=1;jettySize=auto;html=1;entryX=0;entryY=0.5;entryDx=0;entryDy=0;" parent="1" source="Cjfzw1k7YDS4VqMuWa5K-60" target="Cjfzw1k7YDS4VqMuWa5K-42" edge="1">
          <mxGeometry relative="1" as="geometry" />
        </mxCell>
        <mxCell id="Cjfzw1k7YDS4VqMuWa5K-60" value="BaseRepository" style="html=1;" parent="1" vertex="1">
          <mxGeometry x="1544" y="-90" width="110" height="45" as="geometry" />
        </mxCell>
        <mxCell id="Cjfzw1k7YDS4VqMuWa5K-61" value="«interface»&lt;br&gt;&lt;b&gt;IRepository&lt;br&gt;&lt;/b&gt;" style="html=1;" parent="1" vertex="1">
          <mxGeometry x="1410" y="-110" width="120" height="40" as="geometry" />
        </mxCell>
        <mxCell id="Cjfzw1k7YDS4VqMuWa5K-64" value="" style="shape=cylinder3;whiteSpace=wrap;html=1;boundedLbl=1;backgroundOutline=1;size=15;" parent="1" vertex="1">
          <mxGeometry x="2650" y="10" width="60" height="80" as="geometry" />
        </mxCell>
        <mxCell id="Cjfzw1k7YDS4VqMuWa5K-66" style="edgeStyle=orthogonalEdgeStyle;rounded=0;orthogonalLoop=1;jettySize=auto;html=1;entryX=1;entryY=0.5;entryDx=0;entryDy=0;" parent="1" source="Cjfzw1k7YDS4VqMuWa5K-39" target="Cjfzw1k7YDS4VqMuWa5K-49" edge="1">
          <mxGeometry relative="1" as="geometry">
            <mxPoint x="1209" y="380" as="targetPoint" />
            <Array as="points">
              <mxPoint x="1520" y="375" />
              <mxPoint x="1520" y="375" />
            </Array>
          </mxGeometry>
        </mxCell>
        <mxCell id="Cjfzw1k7YDS4VqMuWa5K-68" value="&lt;font size=&quot;7&quot; style=&quot;color: rgb(0 , 0 , 0) ; font-family: &amp;#34;helvetica&amp;#34; ; font-style: normal ; font-weight: normal ; letter-spacing: normal ; text-align: center ; text-indent: 0px ; text-transform: none ; word-spacing: 0px ; text-decoration: none&quot;&gt;Back-end&amp;nbsp;&lt;/font&gt;&lt;br style=&quot;color: rgb(0 , 0 , 0) ; font-family: &amp;#34;helvetica&amp;#34; ; font-size: 12px ; font-style: normal ; font-weight: normal ; letter-spacing: normal ; text-align: center ; text-indent: 0px ; text-transform: none ; word-spacing: 0px ; text-decoration: none&quot;&gt;&lt;font style=&quot;color: rgb(0 , 0 , 0) ; font-family: &amp;#34;helvetica&amp;#34; ; font-style: normal ; font-weight: normal ; letter-spacing: normal ; text-align: center ; text-indent: 0px ; text-transform: none ; word-spacing: 0px ; text-decoration: none ; font-size: 24px&quot;&gt;(.Net Core API)&lt;/font&gt;" style="text;whiteSpace=wrap;html=1;" parent="1" vertex="1">
          <mxGeometry x="1970" y="-460" width="250" height="60" as="geometry" />
        </mxCell>
        <mxCell id="Cjfzw1k7YDS4VqMuWa5K-69" value="&lt;div style=&quot;text-align: center&quot;&gt;&lt;font face=&quot;helvetica&quot; size=&quot;7&quot;&gt;SQL Server&lt;/font&gt;&lt;br&gt;&lt;/div&gt;&lt;div style=&quot;text-align: center&quot;&gt;&lt;font face=&quot;helvetica&quot; size=&quot;7&quot;&gt;&lt;br&gt;&lt;/font&gt;&lt;/div&gt;" style="text;whiteSpace=wrap;html=1;" parent="1" vertex="1">
          <mxGeometry x="2570" y="-130" width="250" height="60" as="geometry" />
        </mxCell>
      </root>
    </mxGraphModel>
  </diagram>
  <diagram id="36awK3lY9y_Fae7CIWZ7" name="Flowcharts">
    <mxGraphModel dx="2893" dy="1186" grid="1" gridSize="10" guides="1" tooltips="1" connect="1" arrows="1" fold="1" page="1" pageScale="1" pageWidth="827" pageHeight="1169" math="0" shadow="0">
      <root>
        <mxCell id="cNNeF-uUAiO0_Bpqucb--0" />
        <mxCell id="cNNeF-uUAiO0_Bpqucb--1" parent="cNNeF-uUAiO0_Bpqucb--0" />
        <mxCell id="ejetbTEt664FSYzerABs-27" style="edgeStyle=orthogonalEdgeStyle;rounded=0;orthogonalLoop=1;jettySize=auto;html=1;" edge="1" parent="cNNeF-uUAiO0_Bpqucb--1" source="ejetbTEt664FSYzerABs-24" target="ejetbTEt664FSYzerABs-28">
          <mxGeometry relative="1" as="geometry">
            <mxPoint x="-700" y="260" as="targetPoint" />
          </mxGeometry>
        </mxCell>
        <mxCell id="ejetbTEt664FSYzerABs-24" value="Login" style="rounded=1;whiteSpace=wrap;html=1;absoluteArcSize=1;arcSize=14;strokeWidth=2;" vertex="1" parent="cNNeF-uUAiO0_Bpqucb--1">
          <mxGeometry x="-750" y="80" width="100" height="100" as="geometry" />
        </mxCell>
        <mxCell id="ejetbTEt664FSYzerABs-30" value="" style="edgeStyle=orthogonalEdgeStyle;rounded=0;orthogonalLoop=1;jettySize=auto;html=1;" edge="1" parent="cNNeF-uUAiO0_Bpqucb--1" source="ejetbTEt664FSYzerABs-25" target="ejetbTEt664FSYzerABs-29">
          <mxGeometry relative="1" as="geometry" />
        </mxCell>
        <mxCell id="ejetbTEt664FSYzerABs-32" value="" style="edgeStyle=orthogonalEdgeStyle;rounded=0;orthogonalLoop=1;jettySize=auto;html=1;" edge="1" parent="cNNeF-uUAiO0_Bpqucb--1" source="ejetbTEt664FSYzerABs-25" target="ejetbTEt664FSYzerABs-31">
          <mxGeometry relative="1" as="geometry">
            <Array as="points">
              <mxPoint x="450" y="210" />
              <mxPoint x="640" y="210" />
            </Array>
          </mxGeometry>
        </mxCell>
        <mxCell id="ejetbTEt664FSYzerABs-35" value="" style="edgeStyle=orthogonalEdgeStyle;rounded=0;orthogonalLoop=1;jettySize=auto;html=1;" edge="1" parent="cNNeF-uUAiO0_Bpqucb--1" source="ejetbTEt664FSYzerABs-25" target="ejetbTEt664FSYzerABs-34">
          <mxGeometry relative="1" as="geometry">
            <Array as="points">
              <mxPoint x="450" y="210" />
              <mxPoint x="210" y="210" />
            </Array>
          </mxGeometry>
        </mxCell>
        <mxCell id="ejetbTEt664FSYzerABs-44" value="" style="edgeStyle=orthogonalEdgeStyle;rounded=0;orthogonalLoop=1;jettySize=auto;html=1;" edge="1" parent="cNNeF-uUAiO0_Bpqucb--1" source="ejetbTEt664FSYzerABs-25" target="ejetbTEt664FSYzerABs-43">
          <mxGeometry relative="1" as="geometry" />
        </mxCell>
        <mxCell id="ejetbTEt664FSYzerABs-25" value="Admin" style="rounded=1;whiteSpace=wrap;html=1;absoluteArcSize=1;arcSize=14;strokeWidth=2;" vertex="1" parent="cNNeF-uUAiO0_Bpqucb--1">
          <mxGeometry x="400" y="70" width="100" height="100" as="geometry" />
        </mxCell>
        <mxCell id="ejetbTEt664FSYzerABs-26" value="Employee" style="rounded=1;whiteSpace=wrap;html=1;absoluteArcSize=1;arcSize=14;strokeWidth=2;" vertex="1" parent="cNNeF-uUAiO0_Bpqucb--1">
          <mxGeometry x="970" y="60" width="100" height="100" as="geometry" />
        </mxCell>
        <mxCell id="ejetbTEt664FSYzerABs-28" value="Forget password" style="rounded=1;whiteSpace=wrap;html=1;absoluteArcSize=1;arcSize=14;strokeWidth=2;" vertex="1" parent="cNNeF-uUAiO0_Bpqucb--1">
          <mxGeometry x="-750" y="230" width="100" height="100" as="geometry" />
        </mxCell>
        <mxCell id="ejetbTEt664FSYzerABs-29" value="Billing" style="rounded=1;whiteSpace=wrap;html=1;absoluteArcSize=1;arcSize=14;strokeWidth=2;" vertex="1" parent="cNNeF-uUAiO0_Bpqucb--1">
          <mxGeometry x="400" y="240" width="100" height="100" as="geometry" />
        </mxCell>
        <mxCell id="ejetbTEt664FSYzerABs-31" value="Calendar" style="rounded=1;whiteSpace=wrap;html=1;absoluteArcSize=1;arcSize=14;strokeWidth=2;" vertex="1" parent="cNNeF-uUAiO0_Bpqucb--1">
          <mxGeometry x="590" y="240" width="100" height="100" as="geometry" />
        </mxCell>
        <mxCell id="ejetbTEt664FSYzerABs-37" value="" style="edgeStyle=orthogonalEdgeStyle;rounded=0;orthogonalLoop=1;jettySize=auto;html=1;" edge="1" parent="cNNeF-uUAiO0_Bpqucb--1" source="ejetbTEt664FSYzerABs-34" target="ejetbTEt664FSYzerABs-36">
          <mxGeometry relative="1" as="geometry" />
        </mxCell>
        <mxCell id="ejetbTEt664FSYzerABs-39" value="" style="edgeStyle=orthogonalEdgeStyle;rounded=0;orthogonalLoop=1;jettySize=auto;html=1;entryX=0.5;entryY=0;entryDx=0;entryDy=0;" edge="1" parent="cNNeF-uUAiO0_Bpqucb--1" target="ejetbTEt664FSYzerABs-38">
          <mxGeometry relative="1" as="geometry">
            <mxPoint x="210" y="335" as="sourcePoint" />
            <mxPoint x="360" y="455" as="targetPoint" />
            <Array as="points">
              <mxPoint x="210" y="395" />
              <mxPoint x="-500" y="395" />
            </Array>
          </mxGeometry>
        </mxCell>
        <mxCell id="ejetbTEt664FSYzerABs-34" value="Dashboard" style="rounded=1;whiteSpace=wrap;html=1;absoluteArcSize=1;arcSize=14;strokeWidth=2;" vertex="1" parent="cNNeF-uUAiO0_Bpqucb--1">
          <mxGeometry x="160" y="240" width="100" height="100" as="geometry" />
        </mxCell>
        <mxCell id="ejetbTEt664FSYzerABs-47" style="edgeStyle=orthogonalEdgeStyle;rounded=0;orthogonalLoop=1;jettySize=auto;html=1;" edge="1" parent="cNNeF-uUAiO0_Bpqucb--1" source="ejetbTEt664FSYzerABs-36" target="ejetbTEt664FSYzerABs-43">
          <mxGeometry relative="1" as="geometry">
            <Array as="points">
              <mxPoint x="380" y="500" />
              <mxPoint x="380" y="620" />
              <mxPoint x="870" y="620" />
            </Array>
          </mxGeometry>
        </mxCell>
        <mxCell id="ejetbTEt664FSYzerABs-48" value="row click" style="edgeLabel;html=1;align=center;verticalAlign=middle;resizable=0;points=[];" vertex="1" connectable="0" parent="ejetbTEt664FSYzerABs-47">
          <mxGeometry x="-0.9288" y="-2" relative="1" as="geometry">
            <mxPoint x="-7" y="8" as="offset" />
          </mxGeometry>
        </mxCell>
        <mxCell id="ejetbTEt664FSYzerABs-51" style="edgeStyle=orthogonalEdgeStyle;rounded=0;orthogonalLoop=1;jettySize=auto;html=1;" edge="1" parent="cNNeF-uUAiO0_Bpqucb--1" source="ejetbTEt664FSYzerABs-36" target="ejetbTEt664FSYzerABs-40">
          <mxGeometry relative="1" as="geometry" />
        </mxCell>
        <mxCell id="ejetbTEt664FSYzerABs-56" value="" style="edgeStyle=orthogonalEdgeStyle;rounded=0;orthogonalLoop=1;jettySize=auto;html=1;" edge="1" parent="cNNeF-uUAiO0_Bpqucb--1" source="ejetbTEt664FSYzerABs-36" target="ejetbTEt664FSYzerABs-55">
          <mxGeometry relative="1" as="geometry">
            <Array as="points">
              <mxPoint x="115" y="580" />
              <mxPoint x="-140" y="580" />
            </Array>
          </mxGeometry>
        </mxCell>
        <mxCell id="ejetbTEt664FSYzerABs-66" style="edgeStyle=orthogonalEdgeStyle;rounded=0;orthogonalLoop=1;jettySize=auto;html=1;" edge="1" parent="cNNeF-uUAiO0_Bpqucb--1" source="ejetbTEt664FSYzerABs-36" target="ejetbTEt664FSYzerABs-58">
          <mxGeometry relative="1" as="geometry">
            <Array as="points">
              <mxPoint x="115" y="580" />
              <mxPoint x="215" y="580" />
            </Array>
          </mxGeometry>
        </mxCell>
        <mxCell id="ejetbTEt664FSYzerABs-67" style="edgeStyle=orthogonalEdgeStyle;rounded=0;orthogonalLoop=1;jettySize=auto;html=1;" edge="1" parent="cNNeF-uUAiO0_Bpqucb--1" source="ejetbTEt664FSYzerABs-36" target="ejetbTEt664FSYzerABs-59">
          <mxGeometry relative="1" as="geometry">
            <Array as="points">
              <mxPoint x="115" y="580" />
              <mxPoint x="55" y="580" />
            </Array>
          </mxGeometry>
        </mxCell>
        <mxCell id="ejetbTEt664FSYzerABs-36" value="Customer List" style="rounded=1;whiteSpace=wrap;html=1;absoluteArcSize=1;arcSize=14;strokeWidth=2;" vertex="1" parent="cNNeF-uUAiO0_Bpqucb--1">
          <mxGeometry x="60" y="450" width="110" height="100" as="geometry" />
        </mxCell>
        <mxCell id="ejetbTEt664FSYzerABs-38" value="Employees List" style="rounded=1;whiteSpace=wrap;html=1;absoluteArcSize=1;arcSize=14;strokeWidth=2;" vertex="1" parent="cNNeF-uUAiO0_Bpqucb--1">
          <mxGeometry x="-550" y="460" width="100" height="100" as="geometry" />
        </mxCell>
        <mxCell id="ejetbTEt664FSYzerABs-53" style="edgeStyle=orthogonalEdgeStyle;rounded=0;orthogonalLoop=1;jettySize=auto;html=1;entryX=0.75;entryY=1;entryDx=0;entryDy=0;" edge="1" parent="cNNeF-uUAiO0_Bpqucb--1" source="ejetbTEt664FSYzerABs-40" target="ejetbTEt664FSYzerABs-43">
          <mxGeometry relative="1" as="geometry" />
        </mxCell>
        <mxCell id="ejetbTEt664FSYzerABs-40" value="Customer Projects&lt;br&gt;List" style="rounded=1;whiteSpace=wrap;html=1;absoluteArcSize=1;arcSize=14;strokeWidth=2;" vertex="1" parent="cNNeF-uUAiO0_Bpqucb--1">
          <mxGeometry x="330" y="640" width="100" height="100" as="geometry" />
        </mxCell>
        <mxCell id="ejetbTEt664FSYzerABs-43" value="SideBar" style="rounded=1;whiteSpace=wrap;html=1;absoluteArcSize=1;arcSize=14;strokeWidth=2;" vertex="1" parent="cNNeF-uUAiO0_Bpqucb--1">
          <mxGeometry x="820" y="240" width="100" height="100" as="geometry" />
        </mxCell>
        <mxCell id="ejetbTEt664FSYzerABs-45" value="router view" style="text;html=1;align=center;verticalAlign=middle;resizable=0;points=[];autosize=1;" vertex="1" parent="cNNeF-uUAiO0_Bpqucb--1">
          <mxGeometry x="450" y="180" width="70" height="20" as="geometry" />
        </mxCell>
        <mxCell id="ejetbTEt664FSYzerABs-52" value="show customer details" style="text;html=1;align=center;verticalAlign=middle;resizable=0;points=[];autosize=1;" vertex="1" parent="cNNeF-uUAiO0_Bpqucb--1">
          <mxGeometry x="445" y="570" width="130" height="20" as="geometry" />
        </mxCell>
        <mxCell id="ejetbTEt664FSYzerABs-54" value="&lt;span style=&quot;color: rgb(0 , 0 , 0) ; font-family: &amp;#34;helvetica&amp;#34; ; font-size: 12px ; font-style: normal ; font-weight: 400 ; letter-spacing: normal ; text-align: center ; text-indent: 0px ; text-transform: none ; word-spacing: 0px ; background-color: rgb(248 , 249 , 250) ; display: inline ; float: none&quot;&gt;show project details&lt;/span&gt;" style="text;whiteSpace=wrap;html=1;" vertex="1" parent="cNNeF-uUAiO0_Bpqucb--1">
          <mxGeometry x="450" y="650" width="140" height="30" as="geometry" />
        </mxCell>
        <mxCell id="ejetbTEt664FSYzerABs-77" style="edgeStyle=orthogonalEdgeStyle;rounded=0;orthogonalLoop=1;jettySize=auto;html=1;entryX=0;entryY=0.5;entryDx=0;entryDy=0;" edge="1" parent="cNNeF-uUAiO0_Bpqucb--1" source="ejetbTEt664FSYzerABs-55" target="ejetbTEt664FSYzerABs-36">
          <mxGeometry relative="1" as="geometry">
            <Array as="points">
              <mxPoint x="-280" y="690" />
              <mxPoint x="-280" y="500" />
            </Array>
          </mxGeometry>
        </mxCell>
        <mxCell id="ejetbTEt664FSYzerABs-55" value="Delete customer" style="rounded=1;whiteSpace=wrap;html=1;absoluteArcSize=1;arcSize=14;strokeWidth=2;" vertex="1" parent="cNNeF-uUAiO0_Bpqucb--1">
          <mxGeometry x="-190" y="640" width="100" height="100" as="geometry" />
        </mxCell>
        <mxCell id="ejetbTEt664FSYzerABs-57" value="&lt;span&gt;Delete customer&lt;/span&gt;" style="text;html=1;align=center;verticalAlign=middle;resizable=0;points=[];autosize=1;" vertex="1" parent="cNNeF-uUAiO0_Bpqucb--1">
          <mxGeometry x="-240" y="595" width="100" height="20" as="geometry" />
        </mxCell>
        <mxCell id="ejetbTEt664FSYzerABs-84" value="" style="edgeStyle=orthogonalEdgeStyle;rounded=0;orthogonalLoop=1;jettySize=auto;html=1;" edge="1" parent="cNNeF-uUAiO0_Bpqucb--1" source="ejetbTEt664FSYzerABs-58">
          <mxGeometry relative="1" as="geometry">
            <mxPoint x="215" y="820" as="targetPoint" />
          </mxGeometry>
        </mxCell>
        <mxCell id="ejetbTEt664FSYzerABs-58" value="Show edit form" style="rounded=1;whiteSpace=wrap;html=1;absoluteArcSize=1;arcSize=14;strokeWidth=2;" vertex="1" parent="cNNeF-uUAiO0_Bpqucb--1">
          <mxGeometry x="165" y="640" width="100" height="100" as="geometry" />
        </mxCell>
        <mxCell id="ejetbTEt664FSYzerABs-87" value="" style="edgeStyle=orthogonalEdgeStyle;rounded=0;orthogonalLoop=1;jettySize=auto;html=1;" edge="1" parent="cNNeF-uUAiO0_Bpqucb--1" source="ejetbTEt664FSYzerABs-59" target="ejetbTEt664FSYzerABs-86">
          <mxGeometry relative="1" as="geometry" />
        </mxCell>
        <mxCell id="ejetbTEt664FSYzerABs-59" value="Show add form" style="rounded=1;whiteSpace=wrap;html=1;absoluteArcSize=1;arcSize=14;strokeWidth=2;" vertex="1" parent="cNNeF-uUAiO0_Bpqucb--1">
          <mxGeometry x="5" y="640" width="100" height="100" as="geometry" />
        </mxCell>
        <mxCell id="ejetbTEt664FSYzerABs-68" value="&lt;span&gt;Add customer&lt;/span&gt;" style="text;html=1;align=center;verticalAlign=middle;resizable=0;points=[];autosize=1;" vertex="1" parent="cNNeF-uUAiO0_Bpqucb--1">
          <mxGeometry x="-30" y="595" width="90" height="20" as="geometry" />
        </mxCell>
        <mxCell id="ejetbTEt664FSYzerABs-69" value="&lt;span&gt;Edit customer&lt;/span&gt;" style="text;html=1;align=center;verticalAlign=middle;resizable=0;points=[];autosize=1;" vertex="1" parent="cNNeF-uUAiO0_Bpqucb--1">
          <mxGeometry x="130" y="595" width="90" height="20" as="geometry" />
        </mxCell>
        <mxCell id="ejetbTEt664FSYzerABs-72" value="updates list" style="text;html=1;align=center;verticalAlign=middle;resizable=0;points=[];autosize=1;" vertex="1" parent="cNNeF-uUAiO0_Bpqucb--1">
          <mxGeometry x="-190" y="500" width="80" height="20" as="geometry" />
        </mxCell>
        <mxCell id="ejetbTEt664FSYzerABs-78" style="edgeStyle=orthogonalEdgeStyle;rounded=0;orthogonalLoop=1;jettySize=auto;html=1;entryX=0;entryY=0.5;entryDx=0;entryDy=0;" edge="1" parent="cNNeF-uUAiO0_Bpqucb--1" target="ejetbTEt664FSYzerABs-36">
          <mxGeometry relative="1" as="geometry">
            <mxPoint x="5" y="870" as="sourcePoint" />
            <Array as="points">
              <mxPoint x="-280" y="870" />
              <mxPoint x="-280" y="500" />
            </Array>
          </mxGeometry>
        </mxCell>
        <mxCell id="ejetbTEt664FSYzerABs-80" style="edgeStyle=orthogonalEdgeStyle;rounded=0;orthogonalLoop=1;jettySize=auto;html=1;" edge="1" parent="cNNeF-uUAiO0_Bpqucb--1">
          <mxGeometry relative="1" as="geometry">
            <mxPoint x="55.000000000000455" y="920" as="sourcePoint" />
            <mxPoint x="60" y="470" as="targetPoint" />
            <Array as="points">
              <mxPoint x="55" y="960" />
              <mxPoint x="-380" y="960" />
              <mxPoint x="-380" y="470" />
              <mxPoint x="60" y="470" />
            </Array>
          </mxGeometry>
        </mxCell>
        <mxCell id="ejetbTEt664FSYzerABs-79" value="yes" style="text;html=1;align=center;verticalAlign=middle;resizable=0;points=[];autosize=1;" vertex="1" parent="cNNeF-uUAiO0_Bpqucb--1">
          <mxGeometry x="-125" y="850" width="30" height="20" as="geometry" />
        </mxCell>
        <mxCell id="ejetbTEt664FSYzerABs-81" value="&lt;div style=&quot;text-align: center&quot;&gt;&lt;span&gt;&lt;font face=&quot;helvetica&quot;&gt;no&lt;/font&gt;&lt;/span&gt;&lt;/div&gt;" style="text;whiteSpace=wrap;html=1;" vertex="1" parent="cNNeF-uUAiO0_Bpqucb--1">
          <mxGeometry x="-90" y="930" width="100" height="30" as="geometry" />
        </mxCell>
        <mxCell id="ejetbTEt664FSYzerABs-86" value="want to add&amp;nbsp;&lt;br&gt;customer" style="strokeWidth=2;html=1;shape=mxgraph.flowchart.decision;whiteSpace=wrap;" vertex="1" parent="cNNeF-uUAiO0_Bpqucb--1">
          <mxGeometry x="5" y="820" width="100" height="100" as="geometry" />
        </mxCell>
        <mxCell id="ejetbTEt664FSYzerABs-88" value="goes back to list" style="text;html=1;align=center;verticalAlign=middle;resizable=0;points=[];autosize=1;" vertex="1" parent="cNNeF-uUAiO0_Bpqucb--1">
          <mxGeometry x="-160" y="450" width="100" height="20" as="geometry" />
        </mxCell>
        <mxCell id="ejetbTEt664FSYzerABs-90" style="edgeStyle=orthogonalEdgeStyle;rounded=0;orthogonalLoop=1;jettySize=auto;html=1;" edge="1" parent="cNNeF-uUAiO0_Bpqucb--1" source="ejetbTEt664FSYzerABs-89">
          <mxGeometry relative="1" as="geometry">
            <mxPoint x="60" y="500" as="targetPoint" />
            <Array as="points">
              <mxPoint x="160" y="870" />
              <mxPoint x="160" y="1010" />
              <mxPoint x="-280" y="1010" />
              <mxPoint x="-280" y="500" />
            </Array>
          </mxGeometry>
        </mxCell>
        <mxCell id="ejetbTEt664FSYzerABs-102" value="yes" style="edgeLabel;html=1;align=center;verticalAlign=middle;resizable=0;points=[];" vertex="1" connectable="0" parent="ejetbTEt664FSYzerABs-90">
          <mxGeometry x="-0.9233" y="-2" relative="1" as="geometry">
            <mxPoint as="offset" />
          </mxGeometry>
        </mxCell>
        <mxCell id="ejetbTEt664FSYzerABs-103" style="edgeStyle=orthogonalEdgeStyle;rounded=0;orthogonalLoop=1;jettySize=auto;html=1;entryX=0.091;entryY=0.18;entryDx=0;entryDy=0;entryPerimeter=0;" edge="1" parent="cNNeF-uUAiO0_Bpqucb--1">
          <mxGeometry relative="1" as="geometry">
            <mxPoint x="60.01000000000022" y="470.0000000000001" as="targetPoint" />
            <mxPoint x="205.00671140939608" y="922" as="sourcePoint" />
            <Array as="points">
              <mxPoint x="205" y="1042" />
              <mxPoint x="-380" y="1042" />
              <mxPoint x="-380" y="470" />
            </Array>
          </mxGeometry>
        </mxCell>
        <mxCell id="ejetbTEt664FSYzerABs-89" value="want to edit&amp;nbsp;&lt;br&gt;customer" style="strokeWidth=2;html=1;shape=mxgraph.flowchart.decision;whiteSpace=wrap;" vertex="1" parent="cNNeF-uUAiO0_Bpqucb--1">
          <mxGeometry x="165" y="820" width="100" height="100" as="geometry" />
        </mxCell>
        <mxCell id="ejetbTEt664FSYzerABs-92" value="" style="shape=requiredInterface;html=1;verticalLabelPosition=bottom;" vertex="1" parent="cNNeF-uUAiO0_Bpqucb--1">
          <mxGeometry x="-680" y="870" width="10" height="20" as="geometry" />
        </mxCell>
        <mxCell id="ejetbTEt664FSYzerABs-93" value="" style="shape=requiredInterface;html=1;verticalLabelPosition=bottom;rotation=-180;" vertex="1" parent="cNNeF-uUAiO0_Bpqucb--1">
          <mxGeometry x="-290" y="945" width="10" height="30" as="geometry" />
        </mxCell>
        <mxCell id="ejetbTEt664FSYzerABs-98" value="" style="ellipse;whiteSpace=wrap;html=1;strokeColor=#FFFFFF;rotation=90;" vertex="1" parent="cNNeF-uUAiO0_Bpqucb--1">
          <mxGeometry x="-286.25" y="947.25" width="12.5" height="10" as="geometry" />
        </mxCell>
        <mxCell id="ejetbTEt664FSYzerABs-100" value="" style="ellipse;whiteSpace=wrap;html=1;strokeColor=#FFFFFF;rotation=90;" vertex="1" parent="cNNeF-uUAiO0_Bpqucb--1">
          <mxGeometry x="-287.25" y="962.25" width="12.5" height="10" as="geometry" />
        </mxCell>
        <mxCell id="ejetbTEt664FSYzerABs-104" value="no" style="text;html=1;align=center;verticalAlign=middle;resizable=0;points=[];autosize=1;" vertex="1" parent="cNNeF-uUAiO0_Bpqucb--1">
          <mxGeometry x="175" y="1020" width="30" height="20" as="geometry" />
        </mxCell>
      </root>
    </mxGraphModel>
  </diagram>
</mxfile>
